{
  "project_info": {
    "project_number": "796972881650",
    "project_id": "firebase-robinmp3"
  },
  "client": [
    {
      "client_info": {
        "mobilesdk_app_id": "1:796972881650:android:fee430dcc1d1321b",
        "android_client_info": {
          "package_name": "aexyn.beis.medrash"
        }
      },
      "oauth_client": [],
      "api_key": [
        {
          "current_key": "AIzaSyCeK3qsQ1SF0PXBMbRFR6JH8s96sS1GMAU"
        }
      ],
      "services": {
        "analytics_service": {
          "status": 1
        },
        "appinvite_service": {
          "status": 1,
          "other_platform_oauth_client": []
        },
        "ads_service": {
          "status": 1
        }
      }
    }
  ],
  "configuration_version": "1"
}